<?xml version="1.0" standalone="no"?>
<!DOCTYPE svg PUBLIC "-//W3C//DTD SVG 20010904//EN"
 "http://www.w3.org/TR/2001/REC-SVG-20010904/DTD/svg10.dtd">
<svg version="1.0" xmlns="http://www.w3.org/2000/svg"
 width="548.000000pt" height="548.000000pt" viewBox="0 0 548.000000 548.000000"
 preserveAspectRatio="xMidYMid meet">
<metadata>
Created by potrace 1.14, written by Peter Selinger 2001-2017
</metadata>
<g transform="translate(0.000000,548.000000) scale(0.100000,-0.100000)"
fill="#000000" stroke="none">
<path d="M2475 5465 c-606 -67 -1144 -324 -1570 -750 -411 -412 -652 -896
-743 -1498 -22 -147 -25 -811 -4 -952 73 -485 245 -897 530 -1265 91 -117 296
-326 417 -423 363 -293 778 -475 1262 -553 135 -21 470 -30 619 -15 509 51
994 249 1389 568 121 97 326 306 417 423 278 359 445 751 524 1227 25 150 31
699 10 902 -66 619 -319 1154 -751 1586 -217 218 -425 366 -700 500 -436 213
-931 301 -1400 250z m658 -1471 c54 -18 115 -73 142 -129 19 -37 20 -66 23
-387 l3 -348 202 0 c190 0 205 -2 252 -24 55 -25 105 -76 133 -134 15 -33 17
-77 17 -442 0 -390 -1 -407 -21 -450 -26 -58 -76 -108 -134 -134 -45 -21 -52
-21 -1050 -21 l-1005 0 -53 24 c-29 13 -68 42 -87 64 -65 75 -66 89 -63 533 3
386 4 400 24 439 30 56 71 94 129 121 47 22 61 24 246 24 l196 0 5 340 6 340
27 55 c30 62 80 108 140 129 62 22 803 22 868 0z"/>
<path d="M2750 3770 c-87 -11 -190 -45 -218 -70 -27 -25 -28 -50 -3 -57 11 -3
21 -13 24 -24 4 -14 14 -19 36 -19 l31 0 0 -114 c0 -134 -6 -146 -76 -146 -62
0 -67 -20 -18 -69 50 -50 103 -62 258 -61 157 0 226 17 226 54 0 19 -64 74
-90 77 l-25 4 -3 147 -3 146 31 22 c34 25 40 59 10 67 -11 3 -20 11 -20 19 0
7 -4 15 -8 18 -18 11 -90 14 -152 6z"/>
<path d="M2045 2796 c-94 -30 -175 -91 -175 -133 0 -33 60 -93 92 -93 14 0 36
9 50 19 13 11 33 21 43 23 52 9 -21 -116 -129 -222 -55 -53 -71 -90 -41 -90 8
0 15 -7 15 -15 0 -28 39 -35 208 -35 156 0 170 -2 187 -20 10 -11 27 -20 38
-20 42 0 97 92 97 163 0 31 -59 97 -87 97 -11 0 -28 -9 -37 -19 -10 -10 -26
-21 -37 -24 -14 -4 -3 13 34 52 83 87 105 147 76 204 -19 37 -92 96 -138 112
-53 18 -141 18 -196 1z"/>
<path d="M3240 2790 c-61 -21 -103 -60 -93 -88 4 -9 20 -30 36 -46 27 -27 31
-28 61 -18 52 19 86 16 86 -8 0 -24 -41 -66 -74 -76 -52 -16 -52 -45 -3 -104
27 -31 32 -33 88 -31 66 2 77 -7 60 -52 -18 -46 -62 -60 -163 -52 -87 6 -88 6
-99 -19 -10 -22 -8 -29 17 -60 37 -43 90 -66 174 -73 226 -19 404 106 374 263
-6 34 -51 88 -101 121 l-22 15 21 29 c13 17 22 44 22 64 0 49 -70 120 -138
140 -69 21 -179 18 -246 -5z"/>
</g>
</svg>
